{ "headers":
    {"x-api-key": "exYafCfOJcFJ5XO6vo412qCkutGExuTI",
    "Content-Type": "application/json"},
  "data":
    {"reservations": {
      "endpoint": "https://sigo.backend.fleetbird.eu/rest/reservations",
      "primary_key": "reservationId"
      },
    "customers": {
      "endpoint": "https://sigo.backend.fleetbird.eu/rest/customers",
      "primary_key": "customerId"
      },
    "bikes": {
      "endpoint": "https://sigo.backend.fleetbird.eu/rest/cars",
      "primary_key":  "carId"
      },
    "promotion_codes": {
      "endpoint": "https://sigo.backend.fleetbird.eu/rest/link_customer_promotion_codes_used",
      "primary_key": "linkCustomerPromotionCodeUsedId"
      }
    }
}