{
    "type": ["null", "object"],
    "additionalProperties":false,
    "properties": {
      "linkCustomerPromotionCodeUsedId": {
            "type": ["null", "number"]
        },
      "customerId": {
            "type": ["null", "number"]
        },
      "promotionCodeId": {
            "type": ["null", "number"]
        },
      "createTime": {
            "type": ["null", "string"]
        }
    }
}